Visualização de Dados com o ggoplot2
…
Primeiros passos

Vamos usar nosso primeiro gráfico para responder a uma pergunta:

Carros com motores grandes usam mais combustível do que carros com motores pequenos?

Qual é a relação entre o tamanho do motor e a eficiência de combustível? É positivo? Negativo? Linear? Não linear?

O banco de dados mpg

Você pode testar sua resposta com o mpg quadro de dados encontrado em ggplot2 (também conhecido como ggplot2::mpg). Um data frame é uma coleção retangular de variáveis (nas colunas) e observações (nas linhas). O mpg contém observações coletadas pela Agência de Proteção Ambiental dos EUA em 38 modelos de carros.

mpg

## # A tibble: 234 x 11
##    manufacturer model      displ  year   cyl trans drv     cty   hwy fl    class
##    <chr>        <chr>      <dbl> <int> <int> <chr> <chr> <int> <int> <chr> <chr>
##  1 audi         a4           1.8  1999     4 auto~ f        18    29 p     comp~
##  2 audi         a4           1.8  1999     4 manu~ f        21    29 p     comp~
##  3 audi         a4           2    2008     4 manu~ f        20    31 p     comp~
##  4 audi         a4           2    2008     4 auto~ f        21    30 p     comp~
##  5 audi         a4           2.8  1999     6 auto~ f        16    26 p     comp~
##  6 audi         a4           2.8  1999     6 manu~ f        18    26 p     comp~
##  7 audi         a4           3.1  2008     6 auto~ f        18    27 p     comp~
##  8 audi         a4 quattro   1.8  1999     4 manu~ 4        18    26 p     comp~
##  9 audi         a4 quattro   1.8  1999     4 auto~ 4        16    25 p     comp~
## 10 audi         a4 quattro   2    2008     4 manu~ 4        20    28 p     comp~
## # ... with 224 more rows
…
