Manipulação de dados com o pacote Tidyverse
…
Método print mais enxuto e informativo.

Mais consistente para seleção e modificação de conteúdo.

Mais fácil conversão de outros formatos para tibble.

Colunas/cédulas podem representar objetos mais complexos.

Exemplo:

require(tidyverse)
tb <- as_tibble(iris)
tb

## # A tibble: 150 x 5
##    Sepal.Length Sepal.Width Petal.Length Petal.Width Species
##           <dbl>       <dbl>        <dbl>       <dbl> <fct>  
##  1          5.1         3.5          1.4         0.2 setosa 
##  2          4.9         3            1.4         0.2 setosa 
##  3          4.7         3.2          1.3         0.2 setosa 
##  4          4.6         3.1          1.5         0.2 setosa 
##  5          5           3.6          1.4         0.2 setosa 
##  6          5.4         3.9          1.7         0.4 setosa 
##  7          4.6         3.4          1.4         0.3 setosa 
##  8          5           3.4          1.5         0.2 setosa 
##  9          4.4         2.9          1.4         0.2 setosa 
## 10          4.9         3.1          1.5         0.1 setosa 
## # ... with 140 more rows
…
summarise() - sumariza a base

rename() - renomear colunas

Para ilustrar o uso destas funções vamos considerar os dados sobre casos e óbitos por Covid-19 no Brasil disponibilizados no pacote Covid19br.

require(covid19br)
require(tidyverse)
Dados <- downloadCovid19("states") %>% as_tibble()
## Uso do operador pipe
# Equivalente a:  as_tibble( downloadCovid19("states") )

Dados

## # A tibble: 13,473 x 12
##    region state date       epi_week newCases accumCases newDeaths accumDeaths
##    <chr>  <chr> <date>        <int>    <int>      <int>     <int>       <int>
##  1 North  RO    2020-02-25        9        0          0         0           0
##  2 North  RO    2020-02-26        9        0          0         0           0
##  3 North  RO    2020-02-27        9        0          0         0           0
##  4 North  RO    2020-02-28        9        0          0         0           0
##  5 North  RO    2020-02-29        9        0          0         0           0
##  6 North  RO    2020-03-01       10        0          0         0           0
##  7 North  RO    2020-03-02       10        0          0         0           0
##  8 North  RO    2020-03-03       10        0          0         0           0
##  9 North  RO    2020-03-04       10        0          0         0           0
## 10 North  RO    2020-03-05       10        0          0         0           0
## # ... with 13,463 more rows, and 4 more variables: newRecovered <int>,
## #   newFollowup <int>, pop <dbl>, state_code <int>
…
Principais argumentos:

Banco de dados;

Sintaxe: nome_novo = nome_antigo

 Exemplo: Podemos colocar os nomes das variáveis do banco de dados sobre Covid19 em português.

Dados <- Dados %>% rename(Estado = state, Regiao = region, Data = date,
                            novosCasos = newCases, novosObitos = newDeaths,
                            totalCasos = accumCases, totalObitos = accumDeaths)
Dados

## # A tibble: 13,473 x 12
##    Regiao Estado Data       epi_week novosCasos totalCasos novosObitos
##    <chr>  <chr>  <date>        <int>      <int>      <int>       <int>
##  1 North  RO     2020-02-25        9          0          0           0
##  2 North  RO     2020-02-26        9          0          0           0
##  3 North  RO     2020-02-27        9          0          0           0
##  4 North  RO     2020-02-28        9          0          0           0
##  5 North  RO     2020-02-29        9          0          0           0
##  6 North  RO     2020-03-01       10          0          0           0
##  7 North  RO     2020-03-02       10          0          0           0
##  8 North  RO     2020-03-03       10          0          0           0
##  9 North  RO     2020-03-04       10          0          0           0
## 10 North  RO     2020-03-05       10          0          0           0
## # ... with 13,463 more rows, and 5 more variables: totalObitos <int>,
## #   newRecovered <int>, newFollowup <int>, pop <dbl>, state_code <int>
…
Podemos utilizar a função select para selecionar colunas de um banco de dados.

Principais argumentos:

Banco de dados;

Sintaxe: variáveis a serem selecionadas.

 Exemplo: Escolhendo algumas variáveis e excluíndo outras na segundo caso.

## Escolhendo 3 colunas
select(Dados, Estado, Data, novosObitos)

## # A tibble: 13,473 x 3
##    Estado Data       novosObitos
##    <chr>  <date>           <int>
##  1 RO     2020-02-25           0
##  2 RO     2020-02-26           0
##  3 RO     2020-02-27           0
##  4 RO     2020-02-28           0
##  5 RO     2020-02-29           0
##  6 RO     2020-03-01           0
##  7 RO     2020-03-02           0
##  8 RO     2020-03-03           0
##  9 RO     2020-03-04           0
## 10 RO     2020-03-05           0
## # ... with 13,463 more rows
…
Agora suponha que precisamos ordenar o banco de dados, para isto podemos utilizar a função arrange. Também pode ser necessário utilizar a função desc.

Principais argumentos:

Banco de dados;

Variáveis usadas na ordenação.

 Exemplo: Ordenando pelo Estado.

Dados %>% select(Estado, Data, ends_with("Casos") ) %>%
  arrange(Data, Estado)

## # A tibble: 13,473 x 4
##    Estado Data       novosCasos totalCasos
##    <chr>  <date>          <int>      <int>
##  1 AC     2020-02-25          0          0
##  2 AL     2020-02-25          0          0
##  3 AM     2020-02-25          0          0
##  4 AP     2020-02-25          0          0
##  5 BA     2020-02-25          0          0
##  6 CE     2020-02-25          0          0
##  7 DF     2020-02-25          0          0
##  8 ES     2020-02-25          0          0
##  9 GO     2020-02-25          0          0
## 10 MA     2020-02-25          0          0
## # ... with 13,463 more rows

 Exemplo: Para ordenar em ordem decrescente de data e crescente de novos casos.

Dados %>% select(Estado, Data, ends_with("Casos") ) %>%
  arrange(desc(Data), novosCasos)

## # A tibble: 13,473 x 4
##    Estado Data       novosCasos totalCasos
##    <chr>  <date>          <int>      <int>
##  1 PA     2021-07-05         27     556694
##  2 RR     2021-07-05         69     113568
##  3 AC     2021-07-05         86      85983
##  4 AP     2021-07-05        137     117927
##  5 TO     2021-07-05        195     199650
##  6 PI     2021-07-05        245     298645
##  7 AL     2021-07-05        281     220022
##  8 AM     2021-07-05        302     404347
##  9 MS     2021-07-05        317     338645
## 10 SE     2021-07-05        348     266273
## # ... with 13,463 more rows
…
Usada para filtrar um banco de dados.

Principais argumentos:

Banco de dados;

Expressões que retornam um valor lógico e são definidas em termos das variáveis.

 Exemplo: Suponha que desejamos fazer um gráfico comparando o número de novos óbitos nos estados de Minas Gerais e Rio de Janeiro. Para isto precisamos filtra o banco de dados.

DadosComp <- Dados %>% filter(Estado %in% c("MG", "RJ"))
DadosComp

## # A tibble: 994 x 12
##    Regiao    Estado Data       epi_week novosCasos totalCasos novosObitos
##    <chr>     <chr>  <date>        <int>      <int>      <int>       <int>
##  1 Southeast MG     2020-02-25        9          0          0           0
##  2 Southeast MG     2020-02-26        9          0          0           0
##  3 Southeast MG     2020-02-27        9          0          0           0
##  4 Southeast MG     2020-02-28        9          0          0           0
##  5 Southeast MG     2020-02-29        9          0          0           0
##  6 Southeast MG     2020-03-01       10          0          0           0
##  7 Southeast MG     2020-03-02       10          0          0           0
##  8 Southeast MG     2020-03-03       10          0          0           0
##  9 Southeast MG     2020-03-04       10          0          0           0
## 10 Southeast MG     2020-03-05       10          0          0           0
## # ... with 984 more rows, and 5 more variables: totalObitos <int>,
## #   newRecovered <int>, newFollowup <int>, pop <dbl>, state_code <int>
…
ungroup() remove o agrupamento.

Principais argumentos:

Banco de dados;

Variáveis que definem agrupamento ou para retirar agrupamento.

 Exemplo: Criando agrupamento por região. 

## Filtrando para um determinada data
Dados %>% filter(Data %in% as.Date("2021-05-28")) %>% 
  group_by(Regiao) 

## # A tibble: 27 x 12
## # Groups:   Regiao [5]
##    Regiao    Estado Data       epi_week novosCasos totalCasos novosObitos
##    <chr>     <chr>  <date>        <int>      <int>      <int>       <int>
##  1 North     RO     2021-05-28       21        695     228358          26
##  2 North     AC     2021-05-28       21        169      82149           3
##  3 North     AM     2021-05-28       21        363     384997          15
##  4 North     RR     2021-05-28       21        118     102930           0
##  5 North     PA     2021-05-28       21       1385     514862          28
##  6 North     AP     2021-05-28       21        244     111524           2
##  7 North     TO     2021-05-28       21       1036     176801          14
##  8 Northeast MA     2021-05-28       21       1045     289019          38
##  9 Northeast PI     2021-05-28       21        644     269732          19
## 10 Northeast CE     2021-05-28       21       3186     790459         119
## # ... with 17 more rows, and 5 more variables: totalObitos <int>,
## #   newRecovered <int>, newFollowup <int>, pop <dbl>, state_code <int>
…
Par nome = função

 Exemplo: Vamos ler os dados do IBGE de projeção da população por municipios e agrupar por estado. A população do estado é dada pela soma da população dos municipios daquele estado.

Fonte:

https://www.ibge.gov.br/estatisticas/sociais/populacao/9103-estimativas-de-populacao.html?=&t=downloads

##  Lendo estimativas populacionais do IBGE
library(readxl)

read_excel("PopEstimada2020.xls") %>% 
  group_by(UF) %>% summarise(PopEst=sum(Pop))

## # A tibble: 27 x 2
##    UF      PopEst
##    <chr>    <dbl>
##  1 AC      894470
##  2 AL     3351543
##  3 AM     4207714
##  4 AP      861773
##  5 BA    14930634
##  6 CE     9187103
##  7 DF     3055149
##  8 ES     4064052
##  9 GO     7113540
## 10 MA     7114598
## # ... with 17 more rows

PopEstimada2020 <- read_excel("PopEstimada2020.xls") %>% 
  group_by(UF, CODUF) %>% summarise(PopEst=sum(Pop))

## `summarise()` has grouped output by 'UF'. You can override using the `.groups` argument.

PopEstimada2020

## # A tibble: 27 x 3
## # Groups:   UF [27]
##    UF    CODUF   PopEst
##    <chr> <dbl>    <dbl>
##  1 AC       12   894470
##  2 AL       27  3351543
##  3 AM       13  4207714
##  4 AP       16   861773
##  5 BA       29 14930634
##  6 CE       23  9187103
##  7 DF       53  3055149
##  8 ES       32  4064052
##  9 GO       52  7113540
## 10 MA       21  7114598
## # ... with 17 more rows

PopEstimada2020 <- read_excel("PopEstimada2020.xls") %>% 
  group_by(UF) %>% summarise(PopEst=sum(Pop), CODUF=mean(CODUF))
PopEstimada2020

## # A tibble: 27 x 3
##    UF      PopEst CODUF
##    <chr>    <dbl> <dbl>
##  1 AC      894470    12
##  2 AL     3351543    27
##  3 AM     4207714    13
##  4 AP      861773    16
##  5 BA    14930634    29
##  6 CE     9187103    23
##  7 DF     3055149    53
##  8 ES     4064052    32
##  9 GO     7113540    52
## 10 MA     7114598    21
## # ... with 17 more rows

 Exemplo: Podemos escolher uma determinada data e somar os dados de casos e óbitos por Covid19 dentro de cada região.

## Filtrando para um determinada data
Dados_aux <- Dados %>% filter(Data %in% as.Date("2021-05-28"))
Dados_aux

## # A tibble: 27 x 12
##    Regiao    Estado Data       epi_week novosCasos totalCasos novosObitos
##    <chr>     <chr>  <date>        <int>      <int>      <int>       <int>
##  1 North     RO     2021-05-28       21        695     228358          26
##  2 North     AC     2021-05-28       21        169      82149           3
##  3 North     AM     2021-05-28       21        363     384997          15
##  4 North     RR     2021-05-28       21        118     102930           0
##  5 North     PA     2021-05-28       21       1385     514862          28
##  6 North     AP     2021-05-28       21        244     111524           2
##  7 North     TO     2021-05-28       21       1036     176801          14
##  8 Northeast MA     2021-05-28       21       1045     289019          38
##  9 Northeast PI     2021-05-28       21        644     269732          19
## 10 Northeast CE     2021-05-28       21       3186     790459         119
## # ... with 17 more rows, and 5 more variables: totalObitos <int>,
## #   newRecovered <int>, newFollowup <int>, pop <dbl>, state_code <int>
…
full_join(): mantém todas as observações dos dois bancos de dados.

Principais argumentos:

x, y: Um par de bancos de dados ;

by: Variáveis para unir (as chaves primária e estrangeira). Por exemplo, by = c(“a” = “b”, “c” = “d”) corresponderá x$a, y$b, x$c e y$d.

 Exemplo: Criando um novo banco de dados ao acrescentar a população estimada por estado no banco de dados sobre Covid19. 

Dados_compl <- inner_join(Dados, PopEstimada2020, c("Estado" = "UF"))
Dados_compl

## # A tibble: 13,473 x 14
##    Regiao Estado Data       epi_week novosCasos totalCasos novosObitos
##    <chr>  <chr>  <date>        <int>      <int>      <int>       <int>
##  1 North  RO     2020-02-25        9          0          0           0
##  2 North  RO     2020-02-26        9          0          0           0
##  3 North  RO     2020-02-27        9          0          0           0
##  4 North  RO     2020-02-28        9          0          0           0
##  5 North  RO     2020-02-29        9          0          0           0
##  6 North  RO     2020-03-01       10          0          0           0
##  7 North  RO     2020-03-02       10          0          0           0
##  8 North  RO     2020-03-03       10          0          0           0
##  9 North  RO     2020-03-04       10          0          0           0
## 10 North  RO     2020-03-05       10          0          0           0
## # ... with 13,463 more rows, and 7 more variables: totalObitos <int>,
## #   newRecovered <int>, newFollowup <int>, pop <dbl>, state_code <int>,
## #   PopEst <dbl>, CODUF <dbl>

select(Dados_compl, Estado, Data, novosCasos, PopEst)

## # A tibble: 13,473 x 4
##    Estado Data       novosCasos  PopEst
##    <chr>  <date>          <int>   <dbl>
##  1 RO     2020-02-25          0 1796460
##  2 RO     2020-02-26          0 1796460
##  3 RO     2020-02-27          0 1796460
##  4 RO     2020-02-28          0 1796460
##  5 RO     2020-02-29          0 1796460
##  6 RO     2020-03-01          0 1796460
##  7 RO     2020-03-02          0 1796460
##  8 RO     2020-03-03          0 1796460
##  9 RO     2020-03-04          0 1796460
## 10 RO     2020-03-05          0 1796460
## # ... with 13,463 more rows
…
names_from: Nome dado a coluna que tem os nomes das variáveis;

values_from: nome da coluna que tem os valores das variáveis.

 Exemplo: Suponha que queremos fazer gráficos com diferentes facetas para representar novos casos de Covid19 e novos casos por 100 mil habitantes.

No ggplot2 podemos usar a função facet_wrap para isto, mas precisamos ter uma coluna que define como as facetas são obtidas.

Iniciamos escolhendo algumas variáveis para trabalhar.

## Escolhendo apenas algumas colunas para simplificar
Dados_aux2 <- DadosCompl %>% select(Data, Estado,novosCasos, Novos_Casos_por_hab)
Dados_aux2

## # A tibble: 240 x 4
##    Data       Estado novosCasos Novos_Casos_por_hab
##    <date>     <chr>       <int>               <dbl>
##  1 2021-01-01 MG           3975               18.7 
##  2 2021-01-02 MG           2418               11.4 
##  3 2021-01-03 MG           1370                6.43
##  4 2021-01-04 MG           1432                6.73
##  5 2021-01-05 MG           4588               21.5 
##  6 2021-01-06 MG           9515               44.7 
##  7 2021-01-07 MG           5450               25.6 
##  8 2021-01-08 MG           7812               36.7 
##  9 2021-01-09 MG           8399               39.4 
## 10 2021-01-10 MG           4443               20.9 
## # ... with 230 more rows

Empilhando os usando gather e pivot_longer.

Dados_empilhados <- Dados_aux2 %>% 
  gather("Variavel", "valor", novosCasos, Novos_Casos_por_hab)
Dados_empilhados

## # A tibble: 480 x 4
##    Data       Estado Variavel   valor
##    <date>     <chr>  <chr>      <dbl>
##  1 2021-01-01 MG     novosCasos  3975
##  2 2021-01-02 MG     novosCasos  2418
##  3 2021-01-03 MG     novosCasos  1370
##  4 2021-01-04 MG     novosCasos  1432
##  5 2021-01-05 MG     novosCasos  4588
##  6 2021-01-06 MG     novosCasos  9515
##  7 2021-01-07 MG     novosCasos  5450
##  8 2021-01-08 MG     novosCasos  7812
##  9 2021-01-09 MG     novosCasos  8399
## 10 2021-01-10 MG     novosCasos  4443
## # ... with 470 more rows

Dados_empilhados <- Dados_aux2 %>% 
  pivot_longer(cols = c(novosCasos, Novos_Casos_por_hab), 
               names_to = "Variavel", values_to =  "valor" )
Dados_empilhados

## # A tibble: 480 x 4
##    Data       Estado Variavel              valor
##    <date>     <chr>  <chr>                 <dbl>
##  1 2021-01-01 MG     novosCasos          3975   
##  2 2021-01-01 MG     Novos_Casos_por_hab   18.7 
##  3 2021-01-02 MG     novosCasos          2418   
##  4 2021-01-02 MG     Novos_Casos_por_hab   11.4 
##  5 2021-01-03 MG     novosCasos          1370   
##  6 2021-01-03 MG     Novos_Casos_por_hab    6.43
##  7 2021-01-04 MG     novosCasos          1432   
##  8 2021-01-04 MG     Novos_Casos_por_hab    6.73
##  9 2021-01-05 MG     novosCasos          4588   
## 10 2021-01-05 MG     Novos_Casos_por_hab   21.5 
## # ... with 470 more rows
…
Voltando para o formato largo.

Dados_fim <- Dados_empilhados %>% 
  pivot_wider(names_from = "Variavel", values_from =  "valor" )
Dados_fim

## # A tibble: 240 x 4
##    Data       Estado novosCasos Novos_Casos_por_hab
##    <date>     <chr>       <dbl>               <dbl>
##  1 2021-01-01 MG           3975               18.7 
##  2 2021-01-02 MG           2418               11.4 
##  3 2021-01-03 MG           1370                6.43
##  4 2021-01-04 MG           1432                6.73
##  5 2021-01-05 MG           4588               21.5 
##  6 2021-01-06 MG           9515               44.7 
##  7 2021-01-07 MG           5450               25.6 
##  8 2021-01-08 MG           7812               36.7 
##  9 2021-01-09 MG           8399               39.4 
## 10 2021-01-10 MG           4443               20.9 
## # ... with 230 more rows
…
