Tipos de Objetos no R
…
Criando tibbles

Tibbles são um dos recursos unificadores do tidyverse.

A maioria dos outros pacotes R usa data frames regulares,
portanto, você pode querer forçar um data frame a um tibble.

as_tibble(iris)

## # A tibble: 150 x 5
##    Sepal.Length Sepal.Width Petal.Length Petal.Width Species
##           <dbl>       <dbl>        <dbl>       <dbl> <fct>  
##  1          5.1         3.5          1.4         0.2 setosa 
##  2          4.9         3            1.4         0.2 setosa 
##  3          4.7         3.2          1.3         0.2 setosa 
##  4          4.6         3.1          1.5         0.2 setosa 
##  5          5           3.6          1.4         0.2 setosa 
##  6          5.4         3.9          1.7         0.4 setosa 
##  7          4.6         3.4          1.4         0.3 setosa 
##  8          5           3.4          1.5         0.2 setosa 
##  9          4.4         2.9          1.4         0.2 setosa 
## 10          4.9         3.1          1.5         0.1 setosa 
## # ... with 140 more rows
…
Tibbles tem um método de impressão refinado que mostra apenas as
primeiras 10 linhas e todas as colunas que cabem na tela.

Além de seu nome, cada coluna informa seu tipo:

tibble(
  a = lubridate::now() + runif(1e3) * 86400,
  b = lubridate::today() + runif(1e3) * 30,
  c = 1:1e3,
  d = runif(1e3),
  e = sample(letters, 1e3, replace = TRUE)
)

## # A tibble: 1,000 x 5
##    a                   b              c     d e    
##    <dttm>              <date>     <int> <dbl> <chr>
##  1 2023-01-25 17:44:04 2023-01-26     1 0.769 i    
##  2 2023-01-25 16:53:27 2023-01-27     2 0.312 k    
##  3 2023-01-26 06:42:37 2023-02-21     3 0.133 j    
##  4 2023-01-25 12:59:06 2023-02-14     4 0.440 p    
##  5 2023-01-25 17:43:43 2023-02-06     5 0.774 f    
##  6 2023-01-25 13:14:35 2023-02-19     6 0.775 y    
##  7 2023-01-26 06:46:52 2023-02-08     7 0.152 h    
##  8 2023-01-26 09:32:22 2023-02-01     8 0.904 n    
##  9 2023-01-26 02:12:55 2023-01-31     9 0.951 s    
## 10 2023-01-25 15:47:46 2023-02-03    10 0.157 z    
## # ... with 990 more rows
…
